﻿Url,Type,Licence,Animals,Comments (e.g. Author name),Field 5
https://d2v9y0dukr6mq2.cloudfront.net/video/thumbnail/uoDvQB0/close-up-beautiful-fluffy-light-brown-baby-bunny-eating-big-fresh-juicy-carrot_rhfbg1-0_thumbnail-full01.png,Image,,bunny,,11/17/2017 9:47pm
https://i.pinimg.com/originals/48/a6/8b/48a68b3726fcaedffe111e4e23665be6.jpg,Image,,Pika,,11/17/2017 9:47pm
http://simplywallpapers.com/walls/animals/i-want-a-bite-1466793-1920x1080.jpg,Image,,turtle,,11/17/2017 9:47pm
http://flashwallpapers.com/little-elephant-with-bird-wallpapers.html,Image,,elephant,,11/19/2017 5:11pm
http://cdn.pcwallart.com/images/goat-wallpaper-3.jpg,Image,,Goat,,11/19/2017 8:52pm
https://avante.biz/wp-content/uploads/Wallpapers-Baby-Animals/Wallpapers-Baby-Animals-004.jpg,Image,,baby squirrel ,,11/19/2017 8:52pm
http://animalli.com/wp-content/uploads/2016/09/baby-animals-animal-hedgehog-mother-and-zoo-1920x1080.jpg,Image,,hedgehog,,11/19/2017 8:52pm
http://www.uroubc.ca/wp-content/uploads/2015/07/7030094-cute-animals.jpg,Image,,bunny and chickens,,11/19/2017 8:52pm
http://feelgrafix.com/data_images/out/9/825143-guinea-pig-wallpaper.jpg,Image,,Guinea Pig,,11/19/2017 8:52pm
http://feelgrafix.com/data_images/out/9/825059-guinea-pig-wallpaper.jpg,Image,,Guinea Pig ,,11/19/2017 8:52pm
http://feelgrafix.com/data_images/out/28/966258-alpaca.jpg,Image,,alpaca,,11/19/2017 8:52pm
https://i.ytimg.com/vi/de6uTMEiZf0/maxresdefault.jpg,Image,,Otter,,11/19/2017 8:52pm
http://cdn.pcwallart.com/images/baby-red-pandas-wallpaper-1.jpg,Image,,red panda,,11/19/2017 8:52pm
http://7wallpapers.net/wp-content/uploads/2016/06/6_Opossum.jpeg,Image,,Possum,,11/19/2017 8:52pm
https://wallpapercave.com/wp/ZgC1Vi1.jpg,Image,,wolf,,11/19/2017 8:52pm
https://i.pinimg.com/originals/e3/27/33/e327338c917be0409426f3aacdfabd1e.jpg,Image,,mountain lions,,11/19/2017 8:52pm
https://wallpaperscraft.com/image/squirrel_food_wood_sit_fluffy_tail_16793_1920x1080.jpg,Image,,squirrel,,11/19/2017 8:52pm
https://wallpaperscraft.com/image/puppy_grass_flowers_face_95339_1920x1080.jpg,Image,,puppy,,11/19/2017 8:52pm
https://wallpaperscraft.com/image/ducklings_many_chicks_110749_1920x1080.jpg,Image,,ducklings,,11/19/2017 8:52pm
https://wallpaperscraft.com/image/raccoon_paws_animal_funny_103443_1920x1080.jpg,Image,,racoon,,11/19/2017 8:52pm
https://wallpaperscraft.com/image/cat_paw_british_115221_1920x1080.jpg,Image,,cat,,11/19/2017 8:52pm
http://www.bhmpics.com/wallpapers/golden_retriever_puppy-1920x1200.jpg,Image,,puppy,,11/19/2017 8:52pm
http://www.bhmpics.com/wallpapers/cute_white_baby_rabbit-1680x1050.jpg,Image,,rabbit,,11/19/2017 8:52pm
http://www.bhmpics.com/wallpapers/baby_raccoons-1680x1050.jpg,Image,,racoon,,11/19/2017 8:52pm
http://www.catbreedslist.com/cat-wallpapers/Siamese-kitten-cute-lie-paws-1920x1080.jpg,Image,,kitten,,11/19/2017 10:16pm
http://3.bp.blogspot.com/-98fqUh1c42A/VoRM4d0GntI/AAAAAAAAk3I/VX7mFk43FXk/s1600/sleeping-siamese-cat.jpg,Image,,cat,,11/19/2017 10:17pm
http://mnzoocdn.mnzoo.org/wp-content/uploads/2016/11/pumaCub3.jpg,Image,,puma,,11/19/2017 10:17pm
https://www.youtube.com/watch?v=saYi2onUqiM,Video,,Hedgehog,,11/19/2017 10:26pm
https://www.youtube.com/watch?v=sVPIsUF3mEg,Video,,Hedgehog and kitten,,11/19/2017 10:40pm
https://www.youtube.com/watch?v=DuhbkLQaGxk,Video,,bunny,,11/19/2017 10:40pm
https://www.youtube.com/watch?v=1JDnF3MHWCc,Video,,hamster,,11/19/2017 10:40pm
https://www.youtube.com/watch?v=7e7WgwEJI8I,Video,,hamster,,11/19/2017 10:40pm
https://www.youtube.com/watch?v=I2h6oYtYPKA,Video,,bunny,,11/19/2017 10:40pm
https://www.youtube.com/watch?v=B_R8MEFXplw,Video,,kittens,,11/19/2017 10:40pm
https://www.youtube.com/watch?v=uziM8n6Xe5s,Video,,kitten,,11/19/2017 10:40pm
https://www.youtube.com/watch?v=2FwFa8mCjdY,Video,,kitten,,11/19/2017 10:40pm
https://www.youtube.com/watch?v=m7rCaf4hyvM,Video,,elephant,,11/19/2017 10:40pm
https://www.youtube.com/watch?v=q-ka1PE5cgI,Video,,kitten,,11/19/2017 10:40pm
https://www.youtube.com/watch?v=ILGuKPOZoUE,Video,,kitten,,11/19/2017 10:40pm
https://www.youtube.com/watch?v=7I_zyOUZiTc,Video,,lion and dog,,11/19/2017 10:40pm
https://www.youtube.com/watch?v=khnndSojqBY,Video,,lion cub,,11/19/2017 10:40pm
https://www.youtube.com/watch?v=XAw7PHjIC0Y,Video,,little lion,,11/19/2017 10:40pm
https://www.youtube.com/watch?v=CpJsL_ugn2Q,Video,,lion cubs,,11/19/2017 10:40pm
https://www.youtube.com/watch?v=FAGW76tXEBA,Video,,lion cubs,,11/19/2017 10:40pm
https://www.youtube.com/watch?v=4Baoe1TqO9I,Video,,wild cat,,11/19/2017 10:40pm
https://www.youtube.com/watch?v=WYvEQpi9V58,Video,,pika,,11/19/2017 10:40pm
https://www.youtube.com/watch?v=XtiRQCN6o8I,Video,,little birds,,11/19/2017 10:40pm
https://www.youtube.com/watch?v=txZJhCQPjEY,Video,,little piggy,,11/19/2017 10:40pm
https://www.youtube.com/watch?v=6oNwVcRYt5g,Video,,puppy,,11/19/2017 10:40pm
https://www.youtube.com/watch?v=4nGKBUQdPlE,Video,,black puppies,,11/19/2017 10:40pm
https://www.youtube.com/watch?v=U8ktn27t5jM,Video,,puppy,,11/19/2017 10:40pm
https://www.youtube.com/watch?v=a5uaMJtLKKY,Video,,kittens,,11/19/2017 10:54pm
https://www.youtube.com/watch?v=pQxCKhfaoSI,Video,,lamb,,11/19/2017 10:55pm
https://www.youtube.com/watch?v=pEySrWkqLLc,Video,,bunny,,11/19/2017 11:09pm
https://cdn.thinglink.me/api/image/517394383872458752/1240/10/scaletowidth,Image,,fennec fox,,11/22/2017 9:37am
http://www.le-domaine-du-val.com/wp-content/uploads/animaux-istock_000003424110_large-1024x681.jpg,Image,,donkey,,11/22/2017 9:37am
https://upload.wikimedia.org/wikipedia/commons/d/d5/2009-03-07Vulpes_zerda024.jpg,Image,,sleepy fenec fox,,11/22/2017 9:37am
https://static1.squarespace.com/static/580fd611440243d873219fd6/t/58ecd9bee6f2e1748bebd4fd/1491917280623/?format=750w,Image,,bunny,,11/22/2017 9:37am
https://thumbs-prod.si-cdn.com/AyujtaaiRKbb4asd9IlMX67TfFk=/800x600/filters:no_upscale()/https://public-media.smithsonianmag.com/filer/79/e5/79e5f640-9443-4274-8461-c8d43e2233fc/raccoons_42-33050750.jpg,Image,,racoons,,11/22/2017 9:37am
https://www-tc.pbs.org/wnet/nature/files/2012/02/raccoon-fs-mez.jpg,Image,,racoon,,11/22/2017 9:37am
https://lh3.googleusercontent.com/x0fIgzGnMAj6KV0iqMYs5i3SW0omj-ok51PRKhqLbphhn9jVaPsG15vOfOArb0G2vw=h900,Image,,Possums,,11/22/2017 9:37am
https://cdn.thinglink.me/api/image/660681343557959681/1240/10/scaletowidth,Image,,koalas,,11/22/2017 9:37am
https://pbs.twimg.com/media/BI6JCXhCIAEv94X.jpg:large,Image,,quokka,,11/22/2017 9:37am
https://i.imgur.com/VVjrOMd.png,Image,,quokka,,11/22/2017 9:37am
https://o.aolcdn.com/images/dims?resize=1000%2C693%2Cshrink&image_uri=http%3A%2F%2Fwww.blogcdn.com%2Fslideshows%2Fimages%2Fslides%2F350%2F783%2F7%2FS3507837%2Fslug%2Fl%2Fa-capybara-mother-and-her-young-walk-inv-1.jpg&client=cbc79c14efcebee57402&signature=a26fcf00926387e110505a9f5774012d2baa9e67,Image,,capybara,,11/22/2017 9:37am
http://the-great-beyond.com/thegreatbeyond/wp-content/uploads/tumblr_mo03cphug31sutuwgo1_1280.png,Image,,capybara and monkey,,11/22/2017 9:37am
http://countryliving.cdnds.net/17/07/1600x800/landscape-1487249462-happy-lamb.jpg,Image,,lamb,,11/22/2017 9:37am
http://www.buybears.org/img/slider/slider01.jpg,Image,,bear,,11/22/2017 9:37am
http://www.buybears.org/img/slider/slider02.jpg,Image,,bears,,11/22/2017 9:37am
http://www.dogscatspets.org/wp-content/uploads/2015/11/Baby-Skunks.jpg,Image,,skunk,,11/22/2017 9:37am
https://i.ytimg.com/vi/mdestkDljiI/maxresdefault.jpg,Image,,chinchila,,11/22/2017 9:37am
http://images6.fanpop.com/image/photos/36100000/Sloths-image-sloths-36191129-1920-1080.jpg,Image,,sloth,,11/22/2017 9:37am
http://s.newsweek.com/sites/www.newsweek.com/files/styles/full/public/2015/07/31/edward-chillin.JPG,Image,,sloth,,11/22/2017 9:37am
https://img00.deviantart.net/7235/i/2008/329/3/1/another_baby_panda_by_mualig.jpg,Image,,panda,,11/22/2017 9:37am
http://i.imgur.com/lnc9fiV.jpg,Image,,otter,,11/22/2017 9:37am
https://img.huffingtonpost.com/asset/5751a756130000fb0738383d.jpeg?cache=2ainbbh601&ops=1910_1000,Image,,otter,,11/22/2017 9:37am
http://www.denverpost.com/wp-content/uploads/2017/03/denverzoo-org-baby_giraffe-dobby_02-e1488394417321.jpg,Image,,giraffe,,11/22/2017 9:37am
http://i.imgur.com/xZYElg3.jpg,Image,,buffalo,,11/22/2017 9:37am
http://picanimal.com/wp-content/uploads/2017/11/giraffes-happy-africa-antelope-savannah-wildlife-calves-parents-giraffe-babies-families-moms-pictures-of-to-download-1024x768.jpg,Image,,giraffe,,11/22/2017 9:37am
"https://res.cloudinary.com/dk/image/upload/fl_keep_iptc,q_80,c_fill,w_1148,f_auto/galleries/cute-animals/dik.jpg",Image,,anthelope,,11/22/2017 9:37am
https://i.pinimg.com/originals/a6/a7/18/a6a718e26079eeabcbf0d32d0cefd6c4.jpg,Image,,pika,,11/22/2017 9:37am
https://lesserplaces.files.wordpress.com/2015/04/dsc05520.jpg,Image,,pikas,,11/22/2017 9:37am
https://salemnet.vo.llnwd.net/swncdn/godvine/pics/GV-Article/GV-chickhat1.jpg,Image,,chicken,,11/22/2017 9:37am
https://www.youtube.com/watch?v=2N8vKNGPEwY,Video,,rat,,11/22/2017 9:37am
https://www.youtube.com/watch?v=vqKlEQWxsEg,Video,,rabbit,,11/22/2017 9:37am
https://www.youtube.com/watch?v=1OF3icemRJc,Video,,puppy,,11/22/2017 9:37am
https://www.youtube.com/watch?v=Imgc3PpxwAw,Video,,puppy,,11/22/2017 9:37am
https://www.youtube.com/watch?v=OVTpEby0Ch8,Video,,kitten,,11/22/2017 9:37am
https://www.youtube.com/watch?v=rWWJMeNzt-8,Video,,cat and dog,,11/22/2017 9:37am
https://www.youtube.com/watch?v=lMEGxViAA9c,Video,,kittens,,11/22/2017 9:37am
https://www.youtube.com/watch?v=peuR8c-_FOE,Video,,kitten,,11/22/2017 9:37am
https://www.youtube.com/watch?v=YHujLTlMFNs,Video,,puppy,,11/22/2017 9:37am
https://www.youtube.com/watch?v=yBO1fBLXZq4,Video,,horse,,11/22/2017 9:37am
https://www.youtube.com/watch?v=tAMoeid-Yqo,Video,,bunny,,11/22/2017 9:37am
https://www.youtube.com/watch?v=nWJ-Z-BIwqg,Video,,giraffe,,11/22/2017 9:37am
https://www.youtube.com/watch?v=QHm-WtjzSOg,Video,,penguin,,11/22/2017 9:37am
https://www.youtube.com/watch?v=xsw378fqIbU,Video,,puppy and otters,,11/22/2017 1:44pm
https://www.youtube.com/watch?v=NHI6qcKj-Lw,Video,,parrot,,11/22/2017 1:44pm
https://www.youtube.com/watch?v=XJniMF9pUoQ,Video,,puppy,,11/22/2017 1:44pm
https://www.youtube.com/watch?v=vzLIn-53MiA,Video,,puppy,,11/22/2017 1:44pm
https://www.youtube.com/watch?v=ff9-HMPkOHY,Video,,puppy,,11/22/2017 1:44pm
https://www.youtube.com/watch?v=dKRAFLNbir8,Video,,puppy,,11/22/2017 1:44pm
https://www.youtube.com/watch?v=Yrp5GRGCbQ0,Video,,puppy,,11/22/2017 1:47pm
https://www.youtube.com/watch?v=yjaig1k5t7k,Video,,puppy,,11/22/2017 1:47pm
https://www.youtube.com/watch?v=nxL21c9B5vY,Video,,ducklings,,11/22/2017 1:47pm
https://www.youtube.com/watch?v=q3WWEXBKHbo,Video,,Possums,,11/22/2017 1:47pm
https://www.youtube.com/watch?v=Ws_vUed5R-A,Video,,turtles,,11/22/2017 1:47pm
https://www.youtube.com/watch?v=2HPo0uuwJts,Video,,marmot,,11/22/2017 1:48pm
https://www.youtube.com/watch?v=qrSa6vjjRHo,Video,,deer,,11/22/2017 1:48pm
https://www.youtube.com/watch?v=C89zQ-42RsE,Video,,bear cubs,,11/22/2017 1:48pm
https://www.youtube.com/watch?v=IjWc43FCYlg,Video,,pony,,11/22/2017 1:52pm
https://www.youtube.com/watch?v=Fn6bcK5sqBg,Video,,Wild Boar,,11/22/2017 1:52pm
https://www.youtube.com/watch?v=7P4c70uiMjE,Video,,racoons,,11/22/2017 1:53pm
https://www.youtube.com/watch?v=LwxAY6bToys,Video,,bunny,,11/22/2017 1:56pm
https://www.youtube.com/watch?v=-OOiUy6iXio,Video,,wombat,,11/22/2017 1:57pm
